User ID, User Email, Cashout Amount, Country Code, Days Active, Total Unlocks, Total Ad Views, Unlocks per day, Points per day, Points This Year, Points Lifetime, Number of Cashouts, Quality Score, Referral Count (acct tbl), Referral Count (counted), LS Enabled, Banned, App Version Code, Number of Migrations, Total Accounts with same Paypal, % of Referrals never active, % of Referrals <40 unlocks, % of Referrals Quality Score < 50, % of Referrals < 20 points, Avg # of Days active for Referrals 
873,michaeldelarosa1999@hotmail.com,10.23,us,109,4056,3197,37.211009174312,192.84403669725,21020,21020,1,98,0,,0,0,5,0,1,,,,,
11951,thawildone09@gmail.com,10.00,us,57,3230,2674,56.666666666667,196.49122807018,11200,11200,1,68,0,,1,0,5,0,1,,,,,
10217,aaliyahtboswell@gmail.com,10.10,us,61,1983,1623,32.508196721311,174.75409836066,10660,10660,1,83,0,,0,0,5,0,1,,,,,
12843,averyboo79@gmail.com,10.17,us,49,2414,2360,49.265306122449,223.87755102041,10970,10970,1,92,1,1,0,0,3,2,1,36,43,43,43,
788,berryjordyn0420@yahoo.com,20.04,us,121,3751,2861,31,175.53719008264,21240,21240,1,87,0,,1,0,5,0,1,,,,,
1445,geetachan@aol.com,10.06,us,96,1614,1381,16.8125,116.35416666667,11170,11170,1,94,0,,1,0,5,0,1,,,,,
316,pankaj_patwardhan@yahoo.in,10.02,us,124,3040,1846,24.516129032258,168.87096774194,20940,20940,1,95,0,,1,0,5,1,1,,,,,
12091,Pgenjearalways@gmail.com,10.00,us,55,3183,2435,57.872727272727,203.63636363636,11200,11200,1,68,0,,1,0,3,0,1,,,,,
14210,kaylagunn06@gmail.com,10.12,us,36,1280,1063,35.555555555556,281.11111111111,10120,10120,1,100,3,3,1,0,5,0,1,12.333333333333,14.666666666667,14.666666666667,14.666666666667,
12155,amygreen15.ag@gmail.com,10.05,us,49,2743,2451,55.979591836735,205.10204081633,10050,10050,1,97,0,,0,0,5,0,1,,,,,
2169,ahtesamul13@live.com,21.07,us,95,3063,2518,32.242105263158,228.52631578947,21710,21710,1,93,8,8,1,0,5,1,1,1.75,2.625,2.625,2.625,
963,Honestlyloyal@gmail.com,11.78,us,112,3789,3154,33.830357142857,214.73214285714,24050,24050,1,85,2,2,1,0,5,1,1,17,21,21,21,
11997,kaypage41@gmail.com,10.06,us,57,3739,2792,65.59649122807,197.54385964912,11260,11260,1,53,0,,1,0,5,0,1,,,,,
10348,xxsbeckerxx@gmail.com,10.04,ca,65,1849,1663,28.446153846154,169.23076923077,11000,11000,1,69,0,,1,0,5,0,1,,,,,
11807,ibthetaxi@gmail.com,10.10,us,51,2501,1960,49.039215686275,207.45098039216,10580,10580,1,97,2,2,0,0,5,1,1,13,16,16,16,
7460,cozby2010@gmail.com,11.09,us,73,1946,1511,26.657534246575,151.91780821918,11090,11090,1,94,0,,0,0,3,0,1,,,,,
3306,lilwynter57@yahoo.com,12.59,us,98,4895,4149,49.948979591837,253.87755102041,24880,24880,1,87,5,5,1,0,5,0,1,7.2,9,9,9,
4808,takijatocafebrewtique@gmail.com,16.82,us,91,4080,3067,44.835164835165,198.02197802198,18020,18020,1,95,0,,1,0,5,0,1,,,,,
9966,rebar9@hotmail.com,10.08,ca,67,2685,1885,40.074626865672,154.32835820896,10340,10340,1,100,0,,0,0,5,0,1,,,,,
12246,dpwaldroupe@outlook.com,10.02,us,55,1871,1629,34.018181818182,199.63636363636,10980,10980,1,100,0,,1,0,5,0,1,,,,,
3733,fou.fleur@gmail.com,10.02,us,93,1374,1139,14.774193548387,108.27956989247,10070,10070,1,93,0,,1,0,4,0,1,,,,,
964,kpuddicombe81@hotmail.com,10.04,ca,108,5400,4104,50,195.27777777778,21090,21090,1,84,1,1,0,0,5,4,1,30,37,37,37,
950,edgomez099@yahoo.com,10.02,ca,97,2708,1730,27.917525773196,207.9381443299,20170,20170,1,35,2,2,1,0,5,0,1,7.5,10.5,10.5,10.5,
8968,steelman127@hotmail.com,10.19,us,72,1580,988,21.944444444444,151.80555555556,10930,10930,1,94,0,,1,0,5,0,1,,,,,
4996,teffanyslp@gmail.com,11.04,us,85,2999,2276,35.282352941176,131.76470588235,11200,11200,1,70,0,,0,0,4,0,1,,,,,
11998,lilyphat@gmail.com,10.08,us,52,1463,1250,28.134615384615,193.84615384615,10080,10080,1,90,1,1,0,0,5,0,1,34,42,42,42,
11890,Coolgrandmaat51@gmail.com,10.07,us,54,1635,1492,30.277777777778,203.7037037037,11000,11000,1,93,1,1,0,0,5,0,1,36,43,43,43,
1635,Melissa.jewelry15@gmail.com,11.07,ca,108,5841,4317,54.083333333333,198.7037037037,21460,21460,1,87,2,2,1,0,5,0,1,15,19,19,19,
10034,amyn2135296@gmail.com,10.67,us,67,2111,1239,31.507462686567,173.28358208955,11610,11610,1,85,1,1,1,0,5,2,1,32,40,40,40,
2881,epicgamer132@yahoo.com,10.92,us,100,1204,1013,12.04,114.1,11410,11410,1,100,2,2,1,0,5,0,1,7,10.5,10.5,10.5,
13065,Notwithoutmusic@yahoo.com,10.00,us,49,1649,1523,33.65306122449,220.20408163265,10790,10790,1,66,1,1,1,0,5,1,1,15,21,21,21,
9748,countrymusicmama1978@yahoo.com,10.14,us,68,2703,2567,39.75,309.41176470588,21040,21040,1,100,8,8,1,0,5,1,1,3.75,4.75,4.75,4.75,
1569,bobbysbargains68@gmail.com,10.16,us,115,1224,500,10.64347826087,91.652173913043,10540,10540,1,82,0,,1,0,5,0,1,,,,,
2397,bobbylee26@bex.net,10.91,us,110,6371,5695,57.918181818182,197.81818181818,21760,21760,1,69,0,,1,0,5,2,1,,,,,
377,tgfaasavalu@hotmail.com,10.10,us,114,3644,3257,31.964912280702,182.63157894737,20820,20820,1,80,0,,1,0,4,2,1,,,,,
287,savvyta@aol.com,10.51,us,122,2720,2544,22.295081967213,176.80327868852,21570,21570,1,92,0,,1,0,5,0,1,,,,,
7019,kapsalis_123@hotmail.com,10.13,ca,81,1834,1638,22.641975308642,132.59259259259,10740,10740,1,97,0,,1,0,5,0,1,,,,,
11912,a-1braidery@mail.com,10.09,us,57,3983,2266,69.877192982456,191.05263157895,10890,10890,1,78,0,,1,0,3,0,1,,,,,
10998,destinationdesk@gmail.com,10.07,us,61,1213,1151,19.885245901639,175.73770491803,10720,10720,1,97,0,,1,0,5,0,1,,,,,
8666,the.furr.ba11@gmail.com,10.27,gb,71,1578,1404,22.225352112676,155.21126760563,11020,11020,1,91,0,,1,0,5,0,1,,,,,
12295,Loki_Phobic@Hotmail.com,10.26,us,55,2361,2157,42.927272727273,201.09090909091,11060,11060,1,100,0,,1,0,5,0,1,,,,,
8685,keisymar@live.com,10.00,us,73,1341,842,18.369863013699,144.38356164384,10540,10540,1,100,0,,1,0,5,0,1,,,,,
5376,rxshadowztw@gmail.com,16.19,us,89,2797,2238,31.426966292135,190.44943820225,16950,16950,1,97,0,,1,0,5,0,1,,,,,
5929,cherimanning@hotmail.co.uk,10.05,gb,69,1828,1344,26.492753623188,151.30434782609,10440,10440,1,60,0,,1,0,3,0,1,,,,,
7789,frazer1324@yahoo.com,10.08,gb,75,1546,1187,20.613333333333,137.86666666667,10340,10340,1,89,0,,1,0,5,0,1,,,,,
1974,mbellantonio@ymail.com,10.07,us,57,2087,1625,36.614035087719,187.19298245614,10670,10670,1,92,0,,1,0,5,1,1,,,,,
1130,18tgadel@gmail.com,10.04,us,117,2668,2362,22.803418803419,192.90598290598,22570,22570,1,97,5,5,1,0,4,1,1,7.2,8.6,8.6,8.6,
2125,ras1999@msn.com,10.10,us,108,4477,4206,41.453703703704,191.66666666667,20700,20700,1,100,0,,1,0,5,1,1,,,,,
1351,Cherishnone999@msn.com,11.15,us,118,4128,3446,34.983050847458,185.08474576271,21840,21840,1,92,0,,1,0,5,0,1,,,,,
9170,triciaoliver3@gmail.com,10.10,us,67,1819,1575,27.149253731343,156.5671641791,10490,10490,1,100,0,,1,0,5,0,1,,,,,
11796,kiriel26@gmail.com,10.09,us,57,2616,2357,45.894736842105,187.36842105263,10680,10680,1,94,0,,1,0,5,0,1,,,,,
13421,valerchika1@yahoo.com,10.07,us,44,2791,2589,63.431818181818,228.86363636364,10070,10070,1,95,1,1,1,0,3,0,1,34,42,42,42,
1547,lindseymcgill2@gmail.com,15.03,us,104,1971,1674,18.951923076923,277.01923076923,28810,28810,1,97,18,18,1,0,3,0,1,2.0555555555556,2.3888888888889,2.3888888888889,2.3888888888889,
9260,mvgranger24@gmail.com,10.03,us,68,1858,1358,27.323529411765,154.85294117647,10530,10530,1,85,0,,1,0,5,0,1,,,,,
10486,anand.dharnetwentyfour@gmail.com,11.71,us,64,3628,2409,56.6875,192.34375,12310,12310,1,55,0,,1,0,5,0,1,,,,,
10426,sssassycat67@gmail.com,10.80,us,56,2497,2131,44.589285714286,192.85714285714,10800,10800,1,97,0,,0,0,5,0,1,,,,,
13961,laura_lomeli@ymail.com,10.35,us,42,2881,2450,68.595238095238,274.04761904762,11510,11510,1,94,3,3,0,0,5,0,1,11.666666666667,14.666666666667,14.666666666667,14.666666666667,
9167,jamienw07@yahoo.com,10.24,us,71,1191,1094,16.774647887324,149.01408450704,10580,10580,1,88,0,,1,0,5,0,1,,,,,
4256,Ryanadam2923@gmail.com,11.49,us,95,4855,4249,51.105263157895,230.73684210526,21920,21920,1,86,4,4,0,0,5,13,1,6.75,8.25,8.25,8.25,
10698,Withstar28@gmail.com,10.06,gb,63,1827,1549,29,166.03174603175,10460,10460,1,100,0,,1,0,5,0,1,,,,,
9061,Lashandatf@gmail.com,10.61,us,69,1812,1162,26.260869565217,153.76811594203,10610,10610,1,94,0,,0,0,5,0,1,,,,,
4718,glen4ord@gmail.com,12.13,us,92,1526,1133,16.586956521739,143.36956521739,13190,13190,1,100,1,1,1,0,5,2,1,29,35,35,35,
9425,wwlfung@gmail.com,10.52,ca,58,2808,2491,48.413793103448,188.27586206897,10920,10920,1,95,0,,1,0,5,0,1,,,,,
11835,AngelEyez11815@gmail.com,10.00,us,58,1105,1014,19.051724137931,181.20689655172,10510,10510,1,93,1,1,1,0,5,0,1,34,42,42,42,
1878,coryphotos007@gmail.com,10.05,us,114,1193,960,10.464912280702,89.649122807018,10220,10220,1,81,0,,1,0,5,0,1,,,,,
1492,larodney98@gmail.com,16.31,us,91,1691,1359,18.582417582418,182.1978021978,16580,16580,1,36,7,7,1,0,4,1,1,4.5714285714286,6,6,6,
382,juliandelx@gmail.com,10.96,us,114,4773,4144,41.868421052632,188.50877192982,21490,21490,1,97,0,,1,0,5,0,1,,,,,
2697,charleeposh@gmail.com,10.03,us,106,3564,481,33.622641509434,191.98113207547,20350,20350,1,93,1,1,1,0,3,0,1,38,44,44,44,
11411,jjlwilliams17@gmail.com,10.13,us,55,1712,1578,31.127272727273,187.81818181818,10330,10330,1,97,0,,1,0,4,0,1,,,,,
8757,summitmccoy@hotmail.com,10.14,ca,72,1388,1267,19.277777777778,140.83333333333,10140,10140,1,60,0,,0,0,5,0,1,,,,,
890,bnwill67@gmail.com,17.58,us,120,2602,2347,21.683333333333,148.08333333333,17770,17770,1,88,0,,1,0,5,0,1,,,,,
6450,Raymondmex601@hotmail.com,10.82,us,74,1694,1315,22.891891891892,148.91891891892,11020,11020,1,100,0,,1,0,5,1,1,,,,,
14080,jaeajones25@gmail.com,43.79,us,34,665,514,19.558823529412,9408.5294117647,319890,319890,1,100,316,316,0,0,5,0,1,0.041139240506329,0.066455696202532,0.066455696202532,0.066455696202532,
136,dixieswampmama@gmail.com,10.68,us,126,2731,2654,21.674603174603,166.5873015873,20990,20990,1,100,0,,1,0,5,0,1,,,,,
1436,mrsladytyler@gmail.com,10.03,us,112,3303,2674,29.491071428571,179.82142857143,20140,20140,1,98,1,1,0,0,5,0,3,37,44,44,44,
5348,r341jd@yahoo.com,10.36,us,80,1423,530,17.7875,131.75,10540,10540,1,100,0,,1,0,5,0,1,,,,,
15187,lilmouse513@gmail.com,10.71,us,4,192,136,48,2727.5,10910,10910,1,0,10,10,1,0,5,0,1,2.3,3,3,3,
9257,pcdouglas30@gmail.com,10.17,us,54,1469,1187,27.203703703704,192.03703703704,10370,10370,1,97,1,1,1,0,5,0,1,27,32,32,32,
7969,teixeira3223@gmail.com,10.94,us,67,203,120,3.0298507462687,164.17910447761,11000,11000,1,100,9,9,1,0,5,0,1,2.8888888888889,3.7777777777778,3.7777777777778,3.7777777777778,
2396,nadiafrncs@ymail.com,10.20,us,76,1149,1011,15.118421052632,134.21052631579,10200,10200,1,100,2,2,1,0,5,0,1,18.5,22.5,22.5,22.5,
7923,tatiana666211@gmail.com,10.46,us,73,2213,1802,30.315068493151,143.28767123288,10460,10460,1,91,0,,1,0,3,0,1,,,,,
4263,bbyfc732004@hotmail.com,10.06,us,95,3480,3357,36.631578947368,211.26315789474,20070,20070,1,88,3,3,1,0,5,0,1,11.666666666667,14,14,14,
7533,gardinodolphin@gmail.com,10.03,gb,78,1390,1281,17.820512820513,128.58974358974,10030,10030,1,100,0,,0,0,3,0,1,,,,,
1287,erikamiller45@gmail.com,11.93,us,111,2916,2434,26.27027027027,207.92792792793,23080,23080,1,94,3,3,1,0,5,3,1,7,8.6666666666667,8.6666666666667,8.6666666666667,
3567,Tj.johnson2016@yahoo.com,10.56,us,61,1272,1056,20.852459016393,173.11475409836,10560,10560,1,90,2,2,1,0,3,2,1,7.5,10.5,10.5,10.5,
1577,bethchaney092113@gmail.com,10.02,us,111,4067,3363,36.63963963964,180.54054054054,20040,20040,1,93,0,,1,0,4,1,1,,,,,
10685,lauriehomebusiness@gmail.com,10.06,us,63,1724,805,27.365079365079,159.68253968254,10060,10060,1,94,0,,1,0,5,1,1,,,,,
1563,workwithjs@yahoo.com,10.52,us,116,3645,3024,31.422413793103,254.91379310345,29570,29570,1,92,8,8,1,0,5,0,1,4,5.125,5.125,5.125,
11636,siera.berg18@gmail.com,10.03,us,54,1934,1617,35.814814814815,185.74074074074,10030,10030,1,85,0,,1,0,3,0,1,,,,,
6928,linzilee07@hotmail.co.uk,13.14,gb,81,2335,2076,28.827160493827,162.22222222222,13140,13140,1,89,0,,1,0,5,0,1,,,,,
501,razacha87@gmail.com,10.89,us,121,5932,5134,49.02479338843,263.80165289256,31920,31920,1,97,5,5,0,0,5,0,1,3.8,5.2,5.2,5.2,
2339,juici_wavy@yahoo.com,10.05,us,59,2133,1595,36.152542372881,170.33898305085,10050,10050,1,82,0,,1,0,5,0,1,,,,,
453,hulk1428@hotmail.com,10.82,us,123,3439,2086,27.959349593496,169.83739837398,20890,20890,1,73,0,,1,0,5,1,1,,,,,
12076,elenaewyatt@gmail.com,10.22,us,56,1942,1720,34.678571428571,182.5,10220,10220,1,96,1,1,1,0,5,0,1,19,25,25,25,
236,latoyamixoncareer@yahoo.com,11.09,us,122,3519,2978,28.844262295082,181.88524590164,22190,22190,1,92,0,,1,0,5,0,1,,,,,
11730,crosse_t10@yahoo.com,10.46,us,58,2019,1876,34.810344827586,180.34482758621,10460,10460,1,91,0,,1,0,5,1,1,,,,,
11879,jesusarrey22@gmail.com,10.06,us,51,3325,2962,65.196078431373,197.25490196078,10060,10060,1,68,0,,1,0,5,0,1,,,,,
1817,Karizma1616@yahoo.com,21.28,us,113,5017,4251,44.398230088496,188.3185840708,21280,21280,1,98,0,,1,0,5,0,1,,,,,
11012,tylerfarnes3@gmail.com,10.33,us,62,1860,1561,30,166.61290322581,10330,10330,1,64,0,,1,0,5,0,1,,,,,
1098,dailypaychecknetworks@gmail.com,10.66,us,106,4051,3176,38.216981132075,3803.2075471698,403140,403140,1,80,385,385,1,0,5,1,1,0.083116883116883,0.11168831168831,0.11168831168831,0.11168831168831,
17750,joeypit22@gmail.com,261.06,us,10,90,65,9,44896,448960,448960,1,100,448,448,1,0,5,0,1,0.037946428571429,0.049107142857143,0.049107142857143,0.049107142857143,
14607,zhana6jackson@gmail.com,78.86,us,34,656,404,19.294117647059,7292.9411764706,247960,247960,1,88,244,244,1,0,5,0,1,0.061475409836066,0.086065573770492,0.086065573770492,0.086065573770492,
1696,brandolph45@gmail.com,11.93,us,114,2546,2151,22.333333333333,516.84210526316,58920,58920,1,62,43,43,1,0,5,71,1,0.3953488372093,0.53488372093023,0.53488372093023,0.53488372093023,
