User ID, User Email, Cashout Amount, Country Code, Days Active, Total Unlocks, Total Ad Views, Unlocks per day, Points per day, Points This Year, Points Lifetime, Number of Cashouts, Quality Score, Referral Count (acct tbl), Referral Count (counted), LS Enabled, Banned, App Version Code, Number of Migrations, Total Accounts with same Paypal, % of Referrals never active, % of Referrals <40 unlocks, % of Referrals Quality Score < 50, % of Referrals < 20 points, Avg # of Days active for Referrals 
158,freak6365@gmail.com,10.44,us,52,1026,858,19.730769230769,220.57692307692,11470,11470,1,100,3,3,1,0,3,0,1,10.666666666667,13.666666666667,13.666666666667,13.666666666667,
1248,allencboogie@gmail.com,10.07,us,45,804,641,17.866666666667,238.22222222222,10720,10720,1,100,0,,1,0,3,0,1,,,,,
303,raa1232003@yahoo.com,10.03,us,50,3895,3597,77.9,220.6,11030,11030,1,97,0,,1,0,3,0,1,,,,,
660,kendralynnehardcastle@gmail.com,10.01,us,44,3992,2957,90.727272727273,455.90909090909,20060,20060,1,92,11,11,0,0,3,0,1,1.3636363636364,1.9090909090909,1.9090909090909,1.9090909090909,
548,alexb3650@gmail.com,10.01,us,39,1018,802,26.102564102564,266.66666666667,10400,10400,1,79,0,,0,0,3,0,1,,,,,
607,kellyporitz@gmail.com,10.25,us,49,1870,1639,38.163265306122,222.44897959184,10900,10900,1,100,0,,1,0,3,1,1,,,,,
48,gemgardner35@gmail.com,10.09,us,53,2381,1963,44.924528301887,201.69811320755,10690,10690,1,90,0,,1,0,3,0,1,,,,,
3252,tinaimnrep@gmail.com,10.09,us,25,1184,952,47.36,827.6,20690,20690,1,78,16,16,1,0,3,2,1,1.875,2.625,2.625,2.625,
1287,erikamiller45@gmail.com,11.15,us,43,1220,1116,28.372093023256,262.09302325581,11270,11270,1,96,3,3,1,0,3,0,1,7,8.6666666666667,8.6666666666667,8.6666666666667,
472,zack.bapty@gmail.com,10.57,us,43,1632,1229,37.953488372093,245.81395348837,10570,10570,1,100,0,,0,0,3,0,1,,,,,
101,britt.carroll.720@gmail.com,10.04,us,53,1952,1771,36.830188679245,200.75471698113,10640,10640,1,38,0,,1,0,3,0,1,,,,,
802,cmsleonl@gmail.com,10.54,us,48,923,906,19.229166666667,226.45833333333,10870,10870,1,100,0,,1,0,3,0,1,,,,,
160,kmueller622@gmail.com,10.11,us,52,1165,1080,22.403846153846,199.23076923077,10360,10360,1,100,0,,1,0,3,0,1,,,,,
535,akhilbirlangi@gmail.com,10.11,us,47,1038,766,22.085106382979,218.51063829787,10270,10270,1,100,0,,1,0,3,0,1,,,,,
1129,mrkevinvega@gmail.com,10.06,us,46,707,0,15.369565217391,225.21739130435,10360,10360,1,100,1,1,1,0,3,0,1,19,26,26,26,
5656,mattcollinsv@gmail.com,18.43,us,3,13,9,4.3333333333333,6476.6666666667,19430,19430,1,100,19,19,0,0,3,0,1,1.4736842105263,1.8421052631579,1.8421052631579,1.8421052631579,
696,ashwahjobs@gmail.com,10.86,us,48,1104,823,23,466.25,22380,22380,1,92,15,15,1,0,3,0,1,1.9333333333333,2.4666666666667,2.4666666666667,2.4666666666667,
422,leon.d1043@gmail.com,10.22,ca,46,773,741,16.804347826087,226.52173913043,10420,10420,1,100,1,1,1,0,3,2,1,35,41,41,41,
396,adamhinojosa26@gmail.com,10.24,ca,48,685,483,14.270833333333,279.58333333333,13420,13420,1,88,5,5,1,0,3,0,1,6.4,8,8,8,
284,ladyris76@gmail.com,10.04,us,50,1830,1667,36.6,204.8,10240,10240,1,87,0,,1,0,3,0,1,,,,,
118,james304@gmail.com,10.07,us,53,1730,1558,32.641509433962,190,10070,10070,1,94,0,,1,0,3,0,1,,,,,
42,jenk73005@gmail.com,10.07,us,53,1455,909,27.452830188679,190,10070,10070,1,97,0,,1,0,3,0,1,,,,,
21,dmattia@udel.edu,10.43,us,52,1482,1095,28.5,200.57692307692,10430,10430,1,100,0,,0,0,3,0,1,,,,,
226,tlahpalli@gmail.com,10.52,us,50,919,272,18.38,210.4,10520,10520,1,100,3,3,1,0,3,10,1,12,14.666666666667,14.666666666667,14.666666666667,
950,edgomez099@gmail.com,10.15,ca,29,1172,757,40.413793103448,384.48275862069,11150,11150,1,34,2,2,1,0,3,0,1,7.5,10.5,10.5,10.5,
5700,kellz1706@gmail.com,10.99,us,13,257,185,19.769230769231,922.30769230769,11990,11990,1,100,10,10,1,0,3,0,1,1.8,2.7,2.7,2.7,
3903,paynew742@gmail.com,485.42,us,20,150,133,7.5,35377,707540,707540,1,100,706,706,1,0,3,0,1,0.021246458923513,0.029745042492918,0.029745042492918,0.029745042492918,
1098,derrickadams78@gmail.com,26.40,us,38,2261,1689,59.5,9902.1052631579,376280,376280,1,82,369,369,1,0,3,1,1,0.086720867208672,0.11653116531165,0.11653116531165,0.11653116531165,
1193,jadastatum@gmail.com,10.66,us,45,2516,1196,55.911111111111,236.88888888889,10660,10660,1,97,2,2,1,0,3,0,1,7,10.5,10.5,10.5,
1696,babyphatgirl9o3@gmail.com,13.89,us,40,976,853,24.4,604.25,24170,24170,1,56,18,18,1,0,3,23,1,1.9444444444444,2.3333333333333,2.3333333333333,2.3333333333333,
