User ID, User Email, Cashout Amount, Country Code, Days Active, Total Unlocks, Total Ad Views, Unlocks per day, Points per day, Points This Year, Points Lifetime, Number of Cashouts, Quality Score, Referral Count (acct tbl), Referral Count (counted), LS Enabled, Banned, App Version Code, Number of Migrations, Total Accounts with same Paypal, % of Referrals never active, % of Referrals <40 unlocks, % of Referrals Quality Score < 50, % of Referrals < 20 points, Avg # of Days active for Referrals 
16,kunsty@gmail.com,46.87,us,4,7,5,1.75,12977.5,51910,51910,1,100,3,2,1,0,3,0,1,21.5,24.5,24.5,24.5,
601,sayeandee@gmail.com,10.35,us,1,140,128,140,33500,33500,33500,1,100,33,33,1,0,3,0,1,1.1818181818182,1.4848484848485,1.4848484848485,1.4848484848485,
641,lani.jeffries94@gmail.com,11.42,us,1,110,88,110,13420,13420,13420,1,100,13,13,1,0,3,0,1,3,3.7692307692308,3.7692307692308,3.7692307692308,
668,travellingwithabear@gmail.com,10.43,ca,1,134,106,134,12430,12430,12430,1,100,12,12,1,0,3,0,1,3.3333333333333,4.0833333333333,4.0833333333333,4.0833333333333,
233,kaitlinaurand58@gmail.com,18.50,us,2,243,207,121.5,10250,20500,20500,1,100,20,20,1,0,3,0,1,2.05,2.45,2.45,2.45,
