User ID, User Email, Cashout Amount, Country Code, Days Active, Total Unlocks, Total Ad Views, Unlocks per day, Points per day, Points This Year, Points Lifetime, Number of Cashouts, Quality Score, Referral Count (acct tbl), Referral Count (counted), LS Enabled, Banned, App Version Code, Number of Migrations, Total Accounts with same Paypal, % of Referrals never active, % of Referrals <40 unlocks, % of Referrals Quality Score < 50, % of Referrals < 20 points, Avg # of Days active for Referrals 
84,cajare93@gmail.com,11.65,us,66,3281,2345,49.712121212121,194.69696969697,12850,12850,1,100,0,,1,0,3,0,1,,,,,
167,jpbarrera2005@gmail.com,10.04,us,65,1212,1120,18.646153846154,168.76923076923,10970,10970,1,100,0,,1,0,3,0,1,,,,,
914,betsy.wooters@gmail.com,10.84,us,61,2727,2413,44.704918032787,196.22950819672,11970,11970,1,100,0,,1,0,3,0,1,,,,,
627,sexyatlanta20@gmail.com,11.03,us,58,1975,1412,34.051724137931,209.65517241379,12160,12160,1,62,2,2,1,0,3,0,1,18,22,22,22,
2449,angelcaballero86@gmail.com,10.54,us,45,1747,1440,38.822222222222,259.11111111111,11660,11660,1,84,4,4,1,0,3,3,1,4.75,6.25,6.25,6.25,
150,moz32346@gmail.com,10.15,us,65,3067,2219,47.184615384615,170.92307692308,11110,11110,1,97,0,,1,0,3,0,1,,,,,
1979,angeliceyes1016@gmail.com,11.33,us,47,1714,1547,36.468085106383,241.06382978723,11330,11330,1,97,2,2,1,0,3,0,1,19,22,22,22,
827,jjjjjosh888@gmail.com,10.05,au,43,937,812,21.790697674419,240.23255813953,10330,10330,1,100,0,,1,0,3,1,1,,,,,
316,rajrj17@gmail.com,10.00,us,63,1370,888,21.746031746032,167.77777777778,10570,10570,1,96,0,,1,0,3,0,1,,,,,
1303,mrsgore1082011@gmail.com,10.03,us,58,1835,1554,31.637931034483,186.72413793103,10830,10830,1,93,0,,1,0,3,0,1,,,,,
111,seherchek@gmail.com,10.19,us,60,1646,1392,27.433333333333,173.16666666667,10390,10390,1,100,0,,0,0,3,0,1,,,,,
2458,jvan1979@gmail.com,10.00,us,48,1123,1059,23.395833333333,223.75,10740,10740,1,85,2,2,1,0,3,0,1,16.5,21,21,21,
1672,edwinrichards89@gmail.com,11.82,us,53,1801,1636,33.981132075472,246.79245283019,13080,13080,1,100,3,3,1,0,3,0,1,4.6666666666667,7,7,7,
130,dwdarksouls@gmail.com,10.33,us,65,1862,869,28.646153846154,164,10660,10660,1,100,0,,1,0,3,0,1,,,,,
1351,nikkikw1975@gmail.com,10.09,us,57,2154,1772,37.789473684211,187.54385964912,10690,10690,1,97,0,,1,0,3,0,1,,,,,
211,kiara.escobales@gmail.com,10.16,us,58,1587,1388,27.362068965517,184.65517241379,10710,10710,1,94,1,1,1,0,3,2,1,15,23,23,23,
1744,theyadig1989@gmail.com,10.04,us,53,1878,1443,35.433962264151,200.56603773585,10630,10630,1,97,0,,1,0,3,0,1,,,,,
1669,ladythompson1030@gmail.com,10.00,us,52,3477,3228,66.865384615385,203.84615384615,10600,10600,1,97,0,,1,0,3,0,1,,,,,
929,hunterc370@gmail.com,10.35,us,61,2604,1920,42.688524590164,176.88524590164,10790,10790,1,97,0,,1,0,3,0,1,,,,,
177,culbe032@umn.edu,11.91,us,59,3219,2796,54.559322033898,201.86440677966,11910,11910,1,88,0,,0,0,3,0,1,,,,,
168,ethanvbui21099@gmail.com,10.01,us,63,658,378,10.444444444444,162.06349206349,10210,10210,1,100,1,1,1,0,3,1,1,33,42,42,42,
1635,melissa.jewelry15@gmail.com,10.20,ca,54,3671,2823,67.981481481481,218.51851851852,11800,11800,1,100,1,1,1,0,3,0,1,30,38,38,38,
1196,princess.bubbles02@gmail.com,10.66,us,56,426,255,7.6071428571429,640.71428571429,35880,35880,1,100,32,32,1,0,3,0,1,1.15625,1.34375,1.34375,1.34375,
8984,gvennsurveys@gmail.com,10.49,gb,11,219,213,19.909090909091,1359.0909090909,14950,14950,1,100,13,13,1,0,3,0,1,1.9230769230769,2.3846153846154,2.3846153846154,2.3846153846154,
69,dzdrrnzhang16@gmail.com,10.05,us,64,1847,1553,28.859375,165.15625,10570,10570,1,45,0,,1,0,3,0,1,,,,,
853,659.brooks@gmail.com,10.01,gb,59,850,723,14.406779661017,169.66101694915,10010,10010,1,94,0,,1,0,3,0,1,,,,,
343,bellascapespa@yahoo.com,10.78,us,63,1566,1451,24.857142857143,177.46031746032,11180,11180,1,91,0,,1,0,3,0,1,,,,,
1586,knuckles4phone@gmail.com,10.04,us,52,2234,2214,42.961538461538,193.07692307692,10040,10040,1,100,0,,0,0,3,0,1,,,,,
1732,mferguson2016@gmail.com,10.70,us,53,1416,1310,26.716981132075,209.43396226415,11100,11100,1,97,3,3,1,0,3,0,1,6.3333333333333,8.6666666666667,8.6666666666667,8.6666666666667,
278,rawburt2@gmail.com,10.42,us,63,1319,1266,20.936507936508,168.88888888889,10640,10640,1,100,0,,1,0,3,0,1,,,,,
1567,monicareed504@gmail.com,10.05,us,51,4871,2265,95.509803921569,204.90196078431,10450,10450,1,95,1,1,0,0,3,0,1,36,42,42,42,
327,louisa.parks.gallegos@gmail.com,10.07,us,63,1430,1342,22.698412698413,165.71428571429,10440,10440,1,96,0,,1,0,3,0,1,,,,,
236,latoyahector256@gmail.com,11.10,us,61,2058,1608,33.737704918033,188.52459016393,11500,11500,1,97,0,,1,0,3,0,1,,,,,
817,fierra23@gmail.com,10.97,us,11,369,302,33.545454545455,2025.4545454545,22280,22280,1,100,20,20,0,0,3,4,1,0.95,1.25,1.25,1.25,
1238,frnklnk@gmail.com,10.02,us,56,740,628,13.214285714286,178.92857142857,10020,10020,1,95,0,,0,0,3,0,1,,,,,
1794,kweatherspoon2013@gmail.com,10.04,us,53,1573,1523,29.679245283019,193.20754716981,10240,10240,1,85,0,,1,0,3,0,1,,,,,
878,dragonchik21@gmail.com,11.94,us,61,1098,789,18,197.86885245902,12070,12070,1,92,0,,1,0,3,0,1,,,,,
1087,dommaniqsdurant@gmail.com,10.27,us,60,1331,783,22.183333333333,173.16666666667,10390,10390,1,91,2,2,1,0,3,0,1,18,22,22,22,
3252,tinaimnrep@gmail.com,15.90,us,38,1625,1331,42.763157894737,1157.6315789474,43990,43990,1,78,37,37,1,0,3,6,1,0.81081081081081,1.1351351351351,1.1351351351351,1.1351351351351,
144,cypress1025@gmail.com,10.28,us,63,1705,1470,27.063492063492,166.34920634921,10480,10480,1,65,1,1,1,0,3,0,1,37,44,44,44,
501,razacha87@gmail.com,11.01,us,62,3407,3108,54.951612903226,339.1935483871,21030,21030,1,100,5,5,0,0,3,0,1,3.8,5.2,5.2,5.2,
2125,ras1999@msn.com,10.00,us,51,2442,2296,47.882352941176,196.07843137255,10000,10000,1,100,0,,1,0,3,0,1,,,,,
1130,18tgadel@gmail.com,12.53,us,59,1253,1131,21.237288135593,212.37288135593,12530,12530,1,100,4,4,1,0,3,1,1,5,6.75,6.75,6.75,
792,carpe.noctem8734@gmail.com,12.28,us,60,2472,1941,41.2,204.66666666667,12280,12280,1,100,1,1,1,0,3,0,1,31,40,40,40,
1261,mameezy23@gmail.com,11.35,us,57,5832,5309,102.31578947368,202.45614035088,11540,11540,1,91,0,,1,0,3,1,1,,,,,
725,andradebrandy@gmail.com,10.12,us,44,1530,1307,34.772727272727,230,10120,10120,1,82,3,3,1,0,3,1,1,10.333333333333,13,13,13,
5700,kellz1706@gmail.com,44.30,us,26,490,331,18.846153846154,2521.5384615385,65560,65560,1,87,62,62,1,0,3,0,1,0.5,0.64516129032258,0.64516129032258,0.64516129032258,
81,supercoolnerdzz08@gmail.com,11.68,us,62,2185,1845,35.241935483871,188.38709677419,11680,11680,1,94,0,,1,0,3,0,1,,,,,
165,nevernight06@gmail.com,10.21,us,65,1188,1110,18.276923076923,157.07692307692,10210,10210,1,100,0,,1,0,3,3,1,,,,,
453,jorgepadilla0318@gmail.com,10.07,us,62,1587,978,25.596774193548,162.41935483871,10070,10070,1,71,0,,1,0,3,1,1,,,,,
