User ID, User Email, Cashout Amount, Country Code, Days Active, Total Unlocks, Total Ad Views, Unlocks per day, Points per day, Points This Year, Points Lifetime, Number of Cashouts, Quality Score, Referral Count (acct tbl), Referral Count (counted), Bonus Count, LS Enabled, Banned, App Version Code, Number of Migrations, Total Accounts with same Paypal, % of Referrals never active, % of Referrals <40 unlocks, % of Referrals Quality Score < 50, % of Referrals < 20 points, Avg # of Days active for Referrals 
10778,kevatron1620@gmail.com,11.22,us,82,1662,1350,20.268292682927,143.65853658537,11780,11780,1,97,0,,0,1,0,5,2,1,,,,,
2919,raraaquelw@gmail.com,10.05,us,120,3409,3115,28.408333333333,172,20640,20640,1,90,1,1,0,1,0,5,0,1,16,22,22,22,
6584,bertojimenezhilario@gmail.com,10.05,us,97,1595,892,16.443298969072,106.17525773196,10299,10299,1,26,0,,59,1,0,6,33,1,,,,,
14505,tonicben@gmail.com,10.12,ca,61,1824,1314,29.901639344262,177.86885245902,10850,10850,1,64,0,,0,1,0,5,0,1,,,,,
17090,lindseysheldon39@gmail.com,10.16,us,40,3587,2422,89.675,259,10360,10360,1,23,2,2,0,1,0,5,0,1,16.5,20.5,20.5,20.5,
14503,miller16@sbc.edu,10.09,us,56,2108,1851,37.642857142857,180.17857142857,10090,10090,1,97,0,,0,1,0,5,0,1,,,,,
4209,mariojc74@yahoo.com,10.48,us,112,4062,3849,36.267857142857,196.36607142857,21993,21993,1,96,0,,3,1,0,6,0,1,,,,,
9586,steelequeen2@gmail.com,10.20,us,86,1382,1173,16.06976744186,124.58139534884,10714,10714,1,100,0,,54,1,0,6,0,1,,,,,
13319,tanayamusgraves@yahoo.com,11.60,us,68,2197,2002,32.308823529412,187.07352941176,12721,12721,1,97,0,,121,1,0,6,0,1,,,,,
607,kellyporitz@yahoo.com,10.01,us,143,11937,9582,83.475524475524,219.81818181818,31434,31434,1,96,2,2,94,1,0,6,4,1,13.5,17.5,17.5,17.5,
8005,lopaka311@yahoo.com,10.75,us,93,1492,762,16.043010752688,123.87096774194,11520,11520,1,97,0,,0,1,0,5,1,1,,,,,
14690,maxipoo03@gmail.com,11.12,us,59,2888,2506,48.949152542373,202.03389830508,11920,11920,1,97,0,,0,1,0,5,0,1,,,,,
4781,jhall_1974@hotmail.com,10.02,us,109,1218,871,11.174311926606,95.009174311927,10356,10356,1,100,0,,6,1,0,6,0,1,,,,,
6483,giggles_1987@msn.com,10.02,au,95,1658,1568,17.452631578947,112.73684210526,10710,10710,1,90,0,,0,1,0,6,0,1,,,,,
4975,Ziriahthezombie@gmail.com,10.11,us,81,1597,1481,19.716049382716,124.81481481481,10110,10110,1,87,0,,0,1,0,5,0,1,,,,,
1293,karynelizabethm@gmail.com,11.51,us,139,4757,4259,34.223021582734,173.09352517986,24060,24060,1,92,0,,0,1,0,5,0,1,,,,,
62,angl8049@aol.com,14.00,us,140,1841,1195,13.15,101.42857142857,14200,14200,1,92,0,,0,1,0,5,1,1,,,,,
15504,ashley.murphy81288@gmail.com,10.63,us,56,2372,2120,42.357142857143,203.03571428571,11370,11370,1,81,0,,0,1,0,5,0,1,,,,,
14735,Annreid7886@gmail.com,11.31,us,59,2965,2619,50.254237288136,205.16949152542,12105,12105,1,65,0,,55,1,0,6,0,1,,,,,
14988,dougncaren@yahoo.com,12.15,us,59,2670,2442,45.254237288136,222.1186440678,13105,13105,1,100,1,1,55,1,0,6,0,2,42,50,50,50,
7053,victordaniel291@gmail.com,12.66,us,87,1589,1254,18.264367816092,383.8275862069,33393,33393,1,33,26,26,63,1,0,6,0,1,1.5384615384615,1.9230769230769,1.9230769230769,1.9230769230769,
6579,Joy_Helena@hotmail.com,19.39,us,102,7438,6469,72.921568627451,190.39215686275,19420,19420,1,59,0,,0,1,0,5,0,1,,,,,
4288,janheinrich65@yahoo.ca,10.09,ca,111,3326,3046,29.963963963964,192.21621621622,21336,21336,1,100,0,,46,1,0,6,0,1,,,,,
13182,whiteboitears@gmail.com,10.14,us,68,1703,1523,25.044117647059,155.23529411765,10556,10556,1,91,0,,6,1,0,5,0,1,,,,,
10749,delilah.grey16@gmail.com,10.17,us,63,1556,1407,24.698412698413,170.63492063492,10750,10750,1,88,1,1,0,1,0,6,0,1,36,43,43,43,
296,supermanzgurl@hotmail.com,10.65,us,139,3005,2137,21.618705035971,150.45323741007,20913,20913,1,100,1,1,3,1,0,6,0,1,33,41,41,41,
12143,nauzoski@yahoo.com,10.02,us,76,1835,1401,24.144736842105,136.48684210526,10373,10373,1,95,0,,3,1,0,5,0,1,,,,,
14220,amandabuster1@gmail.com,10.08,us,62,1820,1709,29.354838709677,173.46774193548,10755,10755,1,94,0,,15,1,0,6,0,1,,,,,
1874,vmartir131@yahoo.com,10.06,us,134,3002,1279,22.402985074627,153.4328358209,20560,20560,1,97,0,,0,1,0,6,0,1,,,,,
8653,zeques87@yahoo.com,10.10,us,94,1591,1342,16.925531914894,112.84042553191,10607,10607,1,97,0,,127,1,0,6,0,1,,,,,
8337,burnsie69@outlook.com,10.13,us,91,1434,1218,15.758241758242,114.72527472527,10440,10440,1,100,0,,0,1,0,5,2,1,,,,,
15712,amart243@gmail.com,10.12,us,55,2465,2048,44.818181818182,194.52727272727,10699,10699,1,81,0,,19,1,0,6,0,1,,,,,
8075,immistahbear@gmail.com,10.18,us,88,1336,1136,15.181818181818,120.22727272727,10580,10580,1,35,0,,0,1,0,3,0,1,,,,,
8302,tish_525@hotmail.com,12.29,gb,89,1874,1412,21.056179775281,142.24719101124,12660,12660,1,90,0,,0,1,0,5,0,1,,,,,
13143,senoriasmith@yahoo.com,10.00,us,69,1960,1781,28.405797101449,149.5652173913,10320,10320,1,98,0,,0,1,0,3,0,1,,,,,
9075,fredrick072070@gmail.com,13.73,us,75,3290,2765,43.866666666667,183.06666666667,13730,13730,1,89,0,,0,1,0,5,0,1,,,,,
4447,dianalynncherry555@gmail.com,10.53,us,111,3422,3327,30.828828828829,190.28828828829,21122,21122,1,85,0,,52,1,0,6,2,1,,,,,
378,ditzzy37ohio@yahoo.com,10.26,us,141,2703,2256,19.170212765957,146.71631205674,20687,20687,1,91,0,,57,1,0,6,1,1,,,,,
6768,Kilchrist.comma.cameron@Gmail.com,10.39,us,95,1407,1015,14.810526315789,113.11578947368,10746,10746,1,80,0,,6,1,0,5,0,1,,,,,
83,mnukwa2002@yahoo.com,10.33,us,142,1384,1198,9.7464788732394,73.69014084507,10464,10464,1,96,0,,24,1,0,6,1,1,,,,,
12138,laceyy91513@gmail.com,18.67,us,76,2107,1668,27.723684210526,250.92105263158,19070,19070,1,95,7,7,0,0,0,5,0,1,2.1428571428571,3.4285714285714,3.4285714285714,3.4285714285714,
2014,destuartalexander@yahoo.com,10.11,us,115,3726,2789,32.4,178.78260869565,20560,20560,1,89,0,,0,1,0,5,0,1,,,,,
15482,megan.jones94@hotmail.com,5.03,gb,56,1627,1570,29.053571428571,183.21428571429,10260,10260,1,97,0,,30,1,0,6,0,1,,,,,
712,ntdey@yahoo.com,10.20,us,143,6715,6151,46.958041958042,224.7972027972,32146,32146,1,96,0,,36,1,0,6,0,1,,,,,
3263,lisavanover78@gmail.com,10.27,us,120,2959,2701,24.658333333333,170.90833333333,20509,20509,1,75,1,1,9,1,0,6,0,1,37,44,44,44,
14951,Ichigo.kirito@aol.com,10.12,us,59,2168,1412,36.745762711864,174.91525423729,10320,10320,1,92,0,,0,1,0,5,0,1,,,,,
33,dionwarrick1@gmail.com,10.11,us,140,2839,2457,20.278571428571,146.57142857143,20520,20520,1,82,0,,0,1,0,6,0,1,,,,,
9464,darrenhuntley@hotmail.com,5.21,gb,86,1349,1326,15.686046511628,123.90697674419,10656,10656,1,97,0,,96,1,0,6,0,1,,,,,
14624,whosklvssy@gmail.com,23.00,us,4,90,68,22.5,9890,39560,39560,1,0,39,39,0,0,0,5,0,1,0.35897435897436,0.56410256410256,0.56410256410256,0.56410256410256,
4826,desiraegalvan@gmail.com,10.07,us,111,5724,5096,51.567567567568,183.06306306306,20320,20320,1,43,0,,0,1,0,5,0,1,,,,,
15568,bronoteone@gmail.com,11.09,gb,54,1781,1400,32.981481481481,208.51851851852,11260,11260,1,78,1,1,0,1,0,5,0,1,38,45,45,45,
7900,gavinsimpson1@hotmail.co.uk,12.34,gb,75,2287,2151,30.493333333333,164.58666666667,12344,12344,1,100,0,,54,1,0,6,0,1,,,,,
4259,mariahrogers66@gmail.com,10.08,us,110,4757,3992,43.245454545455,183.96363636364,20236,20236,1,51,0,,26,1,0,6,0,1,,,,,
14245,charliejamesbolding@gmail.com,10.89,gb,58,1390,740,23.965517241379,191.31034482759,11096,11096,1,100,3,3,36,1,0,6,0,1,5.3333333333333,7.3333333333333,7.3333333333333,7.3333333333333,
7071,Joshuastevenlumpkin88@gmail.com,11.39,us,100,1526,1222,15.26,113.9,11390,11390,1,96,0,,0,1,0,5,0,1,,,,,
1182,Bigdeso566@gmail.com,23.33,us,138,7182,2994,52.04347826087,169.3768115942,23374,23374,1,36,0,,94,1,0,6,0,1,,,,,
15575,wilsonftw8611@gmail.com,10.57,us,55,2211,2002,40.2,192.18181818182,10570,10570,1,94,0,,0,0,0,3,0,1,,,,,
3875,joannamvandorn87@gmail.com,13.97,us,117,5843,4927,49.940170940171,218.00854700855,25507,25507,1,94,3,3,7,1,0,6,0,1,11,14,14,14,
11233,shortyy_sjs1@yahoo.com,10.10,us,78,1617,1143,20.730769230769,130.10256410256,10148,10148,1,87,0,,48,1,0,6,0,1,,,,,
15550,ccstevie81@gmail.com,10.38,us,56,1522,1351,27.178571428571,186.58928571429,10449,10449,1,61,1,1,9,1,0,6,1,1,34,43,43,43,
4846,edgarjfurlow@gmail.com,10.06,us,110,1156,742,10.509090909091,91.454545454545,10060,10060,1,96,1,1,0,1,0,5,0,1,45,54,54,54,
4627,aberberrigo@gmail.com,10.34,us,112,1545,889,13.794642857143,92.330357142857,10341,10341,1,97,0,,41,1,0,6,0,1,,,,,
10675,batmaniscool12345678910@gmail.com,10.21,us,84,1865,1657,22.202380952381,121.54761904762,10210,10210,1,64,0,,0,1,0,6,0,1,,,,,
5334,spoon27@live.com,20.07,us,109,4011,3456,36.798165137615,187.45871559633,20433,20433,1,90,0,,33,1,0,6,0,1,,,,,
9588,glencrabtree@yahoo.com,10.00,us,87,1227,1007,14.103448275862,115.08045977011,10012,10012,1,96,0,,12,1,0,6,0,1,,,,,
11485,aimeeburlingtonrocks@gmail.com,10.20,us,76,1474,1153,19.394736842105,312.36842105263,23740,23740,1,97,18,18,0,1,0,3,0,1,1.1666666666667,1.6666666666667,1.6666666666667,1.6666666666667,
625,tattoojunkie@telus.net,10.76,ca,136,6209,2747,45.654411764706,242.79411764706,33020,33020,1,96,4,4,0,1,0,3,2,1,9,11.25,11.25,11.25,
360,polly_787@yahoo.com,10.01,us,78,1694,1496,21.717948717949,128.34615384615,10011,10011,1,94,0,,21,1,0,6,2,1,,,,,
1003,mpatten30@gmail.com,10.35,us,136,3487,2949,25.639705882353,159.77941176471,21730,21730,1,26,0,,0,1,0,6,1,1,,,,,
802,TheDumpsterTruckirl@gmail.com,10.12,us,133,2238,2081,16.827067669173,155.39097744361,20667,20667,1,97,0,,57,0,0,6,0,1,,,,,
12212,matt.bruce@live.co.uk,13.11,gb,74,1818,1631,24.567567567568,178.01351351351,13173,13173,1,100,1,1,63,1,0,6,0,1,36,43,43,43,
7510,amberlynn122713@gmail.com,14.30,us,97,1819,1127,18.752577319588,149.58762886598,14510,14510,1,86,0,,0,1,0,5,0,1,,,,,
15415,brijkurani@gmail.com,10.05,gb,56,2009,1574,35.875,179.46428571429,10050,10050,1,100,0,,0,1,0,5,0,1,,,,,
1358,golar1973@gmail.com,10.11,us,127,3431,3053,27.015748031496,166.86614173228,21192,21192,1,96,0,,12,1,0,6,0,1,,,,,
12749,Antoniet.Kirby@gmail.com,11.40,us,71,1740,1488,24.507042253521,160.69014084507,11409,11409,1,97,0,,9,1,0,6,0,1,,,,,
12962,julia.r.burton@gmail.com,11.61,au,67,2145,1933,32.014925373134,174.65671641791,11702,11702,1,100,0,,92,0,0,6,0,1,,,,,
3489,alicesamarie12@gmail.com,21.82,us,74,5553,4303,75.040540540541,294.86486486486,21820,21820,1,25,7,7,0,1,0,5,1,1,4.1428571428571,5.4285714285714,5.4285714285714,5.4285714285714,
9262,jreeve714@gmail.com,10.15,us,88,1166,591,13.25,115.43181818182,10158,10158,1,100,0,,18,1,0,6,0,1,,,,,
158,Intactivistdoulamama@yahoo.com,64.29,us,144,2697,2110,18.729166666667,750.55555555556,108080,108080,1,100,86,86,0,1,0,5,0,1,0.38372093023256,0.51162790697674,0.51162790697674,0.51162790697674,
14080,jaeajones25@gmail.com,80.08,us,36,667,516,18.527777777778,11082.5,398970,398970,1,100,395,395,0,0,0,5,0,1,0.032911392405063,0.055696202531646,0.055696202531646,0.055696202531646,
884,deannsmakingmoney@outlook.com,11.34,us,142,2307,1829,16.246478873239,151.55633802817,21521,21521,1,89,1,1,21,1,0,6,0,1,39,48,48,48,
2933,rrockerdude113@gmail.com,10.04,us,117,1037,921,8.8632478632479,85.811965811966,10040,10040,1,89,0,,0,1,0,4,0,1,,,,,
8239,lil0me@yahoo.com,12.02,us,94,1307,1163,13.904255319149,127.94680851064,12027,12027,1,100,0,,97,1,0,6,0,1,,,,,
17750,joeypit22@gmail.com,45.00,us,12,94,68,7.8333333333333,49749.333333333,596992,596992,1,100,596,596,12,1,0,6,4,1,0.028523489932886,0.038590604026846,0.038590604026846,0.038590604026846,
16170,taydropemoff@gmail.com,10.27,us,52,3784,2383,72.769230769231,197.67307692308,10279,10279,1,35,0,,9,0,0,6,7,1,,,,,
2106,sashafort@yahoo.com,10.21,us,128,1110,1047,8.671875,79.765625,10210,10210,1,90,0,,0,1,0,6,0,1,,,,,
14607,zhana6jackson@gmail.com,264.65,us,136,1029,659,7.5661764705882,5776.8382352941,785650,785650,1,87,780,780,0,0,0,6,1,1,0.019230769230769,0.028205128205128,0.028205128205128,0.028205128205128,
