jllangley21@gmail.com,15.17,USD
linzibond@yahoo.co.uk,10.13,USD
Mlfforever2014@Gmail.com,19.79,USD
buenotgk@gmail.com,10.16,USD
Bignik429@hotmail.com,10.07,USD
aburgos4726@gmail.com,16.02,USD
tmtreftz@outlook.com,10.12,USD
brenton.clutterbuck@gmail.com,10.23,USD
brenton.clutterbuck@gmail.com,10.23,USD
brenton.clutterbuck@gmail.com,10.23,USD
brenton.clutterbuck@gmail.com,10.23,USD
kingwinter48@gmail.com,13.15,USD
yazlinromanmelissakk@gmail.com,10.03,USD
cris9310@gmail.com,10.17,USD
ladyris@aol.com,10.14,USD
bakerc42@gmail.com,10.01,USD
crissegirl22@yahoo.com,10.04,USD
jvance1979@outlook.com,10.05,USD
heatherjackson03221987@gmail.com,23.04,USD
ethanfay2000@gmail.com,10.66,USD
mrve7@hotmail.com,10.16,USD
james304@gmail.com,11.10,USD
1970jeanjean@gmail.com,10.30,USD
Kweatherspoon2013@gmail.com,10.18,USD
kamarajohnson91@gmail.com,15.07,USD
foxracingdiva01@gmail.com,10.34,USD
Calindas42@gmail.com,11.94,USD
stitch2230@yahoo.com,10.03,USD
bjtall43@hotmail.com,10.00,USD
gmaldonado61983@gmail.com,10.12,USD
drrnzhang@yahoo.com,10.00,USD
moiseev2010@yahoo.com,10.18,USD
angiep23@yahoo.com,10.14,USD
damiendelacerda@gmail.com,10.02,USD
brenton.clutterbuck@gmail.com,10.23,USD
becky_heidrich@yahoo.com,10.16,USD
becky_heidrich@yahoo.com,10.16,USD
madisonfrazier@yahoo.com,10.34,USD
sweetsoof@yahoo.com,10.10,USD
statumjada@yahoo.com,10.41,USD
becky_heidrich@yahoo.com,10.16,USD
laurenmakos@gmail.com,10.16,USD
juliepack76@Gmail.com,10.07,USD
homeinvestment@live.com,10.38,USD
w_a_k_shea@yahoo.com,10.30,USD
joe@gmail.com,37.32,USD
mario.mjpl@outlook.com,13.37,USD
moz32346@gmail.com,10.51,USD
jarednator2002@gmail.com,10.15,USD
kelseycharley@yahoo.com,10.03,USD
angela_did_it_8@yahoo.com,10.00,USD
monkeygurlie16@hotmail.com,22.53,USD
liamjack02@gmail.com,10.85,USD
sirtrahan1230@gmail.com,18.14,USD
briannabutler32@gmail.com,12.43,USD
ledariusjones15@yandex.com,14.65,USD
fixxon1972@googlemail.com,10.24,USD
doublejayjessejames725@yahoo.ca,10.18,USD
mkane513k@gmail.com,10.18,USD
closmusichmod@gmail.com,10.28,USD
meganemcclean@gmail.com,10.18,USD
da2ionjones88@gmail.com,10.55,USD
e213262@gmail.com,10.12,USD
pamhuckeba84@gmail.com,12.22,USD
shahrukhriaz@live.com,10.02,USD
timothycornelious1989@yahoo.com,10.01,USD
kerbby484@gmail.com,10.17,USD
fredricksmith3190@yahoo.com,10.16,USD
bmarshall87@hotmail.ca,10.24,USD
annemarie.d.ad@googlemail.com,10.00,USD
dwilden@roadrunner.com,10.04,USD
laurajennifer@charter.net,10.40,USD
adamhinojosa26@gmail.com,10.03,USD
jpbarrera2005@gmail.com,10.16,USD
cajare1@hotmail.com,11.12,USD
miracle_whip@myspace.com,10.61,USD
Successwithneshia@gmail.com,10.42,USD
nikkidunford32914@gmail.com,15.40,USD
bronwen7180@Hotmail.com,12.30,USD
certiori@gmail.com,10.12,USD
fastcab@live.com,10.06,USD
jaeajones25@gmail.com,88.40,USD
tritonflow@gmail.com,20.52,USD
legeramber89@gmail.com,11.33,USD
hconway1983@gmail.com,10.00,USD
betsy.wooters@gmail.com,11.85,USD
brandy.andrade@rocketmail.com,10.04,USD
lexieukens@gmail.com,12.55,USD
Michael.Hocken@Gmail.com,10.08,USD
tcsmeltzerjr@gmail.com,10.08,USD
natashas_pet_sitting@yahoo.com,15.99,USD
joeypit22@gmail.com,110.03,USD
jessahisa@aol.com,10.00,USD
athomemom82@gmail.com,10.31,USD
zhana6jackson@gmail.com,62.45,USD
