kevatron1620@gmail.com,11.22,USD
raraaquelw@gmail.com,10.05,USD
bertojimenezhilario@gmail.com,10.05,USD
tonicben@gmail.com,10.12,USD
lindseysheldon39@gmail.com,10.16,USD
miller16@sbc.edu,10.09,USD
mariojc74@yahoo.com,10.48,USD
steelequeen2@gmail.com,10.20,USD
tanayamusgraves@yahoo.com,11.60,USD
kellyporitz@yahoo.com,10.01,USD
lopaka311@yahoo.com,10.75,USD
maxipoo03@gmail.com,11.12,USD
jhall_1974@hotmail.com,10.02,USD
giggles_1987@msn.com,10.02,USD
Ziriahthezombie@gmail.com,10.11,USD
karynelizabethm@gmail.com,11.51,USD
angl8049@aol.com,14.00,USD
ashley.murphy81288@gmail.com,10.63,USD
Annreid7886@gmail.com,11.31,USD
dougncaren@yahoo.com,12.15,USD
victordaniel291@gmail.com,12.66,USD
Joy_Helena@hotmail.com,19.39,USD
janheinrich65@yahoo.ca,10.09,USD
whiteboitears@gmail.com,10.14,USD
delilah.grey16@gmail.com,10.17,USD
supermanzgurl@hotmail.com,10.65,USD
nauzoski@yahoo.com,10.02,USD
amandabuster1@gmail.com,10.08,USD
vmartir131@yahoo.com,10.06,USD
zeques87@yahoo.com,10.10,USD
burnsie69@outlook.com,10.13,USD
amart243@gmail.com,10.12,USD
immistahbear@gmail.com,10.18,USD
tish_525@hotmail.com,12.29,USD
senoriasmith@yahoo.com,10.00,USD
fredrick072070@gmail.com,13.73,USD
dianalynncherry555@gmail.com,10.53,USD
ditzzy37ohio@yahoo.com,10.26,USD
Kilchrist.comma.cameron@Gmail.com,10.39,USD
mnukwa2002@yahoo.com,10.33,USD
laceyy91513@gmail.com,18.67,USD
destuartalexander@yahoo.com,10.11,USD
megan.jones94@hotmail.com,5.03,USD
ntdey@yahoo.com,10.20,USD
lisavanover78@gmail.com,10.27,USD
Ichigo.kirito@aol.com,10.12,USD
dionwarrick1@gmail.com,10.11,USD
darrenhuntley@hotmail.com,5.21,USD
whosklvssy@gmail.com,23.00,USD
desiraegalvan@gmail.com,10.07,USD
bronoteone@gmail.com,11.09,USD
gavinsimpson1@hotmail.co.uk,12.34,USD
mariahrogers66@gmail.com,10.08,USD
charliejamesbolding@gmail.com,10.89,USD
Joshuastevenlumpkin88@gmail.com,11.39,USD
Bigdeso566@gmail.com,23.33,USD
wilsonftw8611@gmail.com,10.57,USD
joannamvandorn87@gmail.com,13.97,USD
shortyy_sjs1@yahoo.com,10.10,USD
ccstevie81@gmail.com,10.38,USD
edgarjfurlow@gmail.com,10.06,USD
aberberrigo@gmail.com,10.34,USD
batmaniscool12345678910@gmail.com,10.21,USD
spoon27@live.com,20.07,USD
glencrabtree@yahoo.com,10.00,USD
aimeeburlingtonrocks@gmail.com,10.20,USD
tattoojunkie@telus.net,10.76,USD
polly_787@yahoo.com,10.01,USD
mpatten30@gmail.com,10.35,USD
TheDumpsterTruckirl@gmail.com,10.12,USD
matt.bruce@live.co.uk,13.11,USD
amberlynn122713@gmail.com,14.30,USD
brijkurani@gmail.com,10.05,USD
golar1973@gmail.com,10.11,USD
Antoniet.Kirby@gmail.com,11.40,USD
julia.r.burton@gmail.com,11.61,USD
alicesamarie12@gmail.com,21.82,USD
jreeve714@gmail.com,10.15,USD
Intactivistdoulamama@yahoo.com,64.29,USD
jaeajones25@gmail.com,80.08,USD
deannsmakingmoney@outlook.com,11.34,USD
rrockerdude113@gmail.com,10.04,USD
lil0me@yahoo.com,12.02,USD
joeypit22@gmail.com,45.00,USD
taydropemoff@gmail.com,10.27,USD
sashafort@yahoo.com,10.21,USD
zhana6jackson@gmail.com,264.65,USD
