mmagandy@outlook.com,10.06,USD
babyb0i51404@gmail.com,10.74,USD
Rodriquezbrickman@gmail.com,10.83,USD
jnranto16@gmail.com,10.74,USD
anukys90@gmail.com,12.17,USD
joanna.hickman69@yahoo.co,18.71,USD
ROMANDIAZ89@HOTMAIL.COM,10.01,USD
lotsamoolah@Yahoo.com,10.40,USD
Kurtlemaster918@gmail.com,10.13,USD
brianlee3000@hotmail.com,10.10,USD
btharr20@gmail.com,10.08,USD
Tara.sparks@yahoo.com,10.00,USD
Intactivistdoulamama@yahoo.com,33.35,USD
kitten_74_2002@yahoo.com,14.36,USD
christiansen.tommy@yahoo.com,11.46,USD
d55s@aol.com,20.15,USD
angeliquegonzalez1998@aol.com,10.48,USD
hnjtreasures@gmail.com,10.00,USD
fuhq949@gmail.com,10.19,USD
ivegotgoals49@gmail.com,10.03,USD
nicesweet889@Yahoo.ca,10.05,USD
harleynjazz@Gmail.com,10.51,USD
lovwnsweetguy2000@gmail.com,10.13,USD
fresitaprod8899@gmail.com,10.02,USD
krystalcroope@yahoo.com,11.73,USD
dkwalker1024@gmail.com,10.19,USD
Tristeanah@gmail.com,10.46,USD
shalous84@gmail.com,10.73,USD
allisonrylie406@gmail.com,10.06,USD
Yodernoelle@yahoo.com,11.61,USD
Gwendolyn.hsu@gmail.com,10.03,USD
XxinfamousbladerxX@gmail.com,10.19,USD
aboehnke@hotmail.com,10.16,USD
Happypep45@hotmail.com,10.06,USD
bandsandpeace1029@gmail.com,10.07,USD
baileycass@outlook.com,11.07,USD
ebonyc577@gmail.com,10.05,USD
nikkidunford32914@gmail.com,10.18,USD
ggalexmy1@gmail.com,12.00,USD
apeysparks@yahoo.com,10.15,USD
mickey1928mouse@frontier.com,10.55,USD
mrsdesiraeguzman@gmail.com,10.14,USD
michaelkatz1999@gmail.com,10.54,USD
bryanwayne1989@gmail.com,16.52,USD
cesartofyee01@gmail.com,13.37,USD
cousz@live.ca,10.05,USD
lwckjkmmlw@gmail.com,10.13,USD
adyandmandy@yahoo.co.uk,10.07,USD
dmjenkins2013@gmail.com,10.00,USD
tls9211@gmail.com,10.58,USD
natashas_pet_sitting@yahoo.com,10.11,USD
BigHass3568@gmail.com,24.12,USD
paytime2014@gmail.com,10.02,USD
ryan.busque@frontier.com,10.00,USD
bellascapespa@Yahoo.com,11.92,USD
divineamore18@gmail.com,10.21,USD
clearflake5@gmail.com,10.47,USD
stacyholmes1028@gmail.com,10.51,USD
seeyaatthemovies@gmail.com,10.18,USD
Limoriginality@gmail.com,10.00,USD
patryk.janiszewski@outlook.com,10.07,USD
tainy2312@hotmail.com,10.10,USD
laurajennifer@charter.net,10.65,USD
erik.seng@gmail.com,10.05,USD
sonny.bolden071001@gmail.com,10.14,USD
kunsty@gmail.com,13.00,USD
ms.Amy_lynn@yahoo.com,10.63,USD
wandaluis42@gmail.com,10.08,USD
matthewslove03192@gmail.com,10.18,USD
lonewolfpack4@hotmail.com,10.00,USD
betacowssp@gmail.com,10.14,USD
dommaniq.durant@yahoo.com,10.00,USD
ballen0420@gmail.com,17.43,USD
Dannyboy626@gmail.com,17.91,USD
cougar_town@yahoo.com,10.68,USD
mackiesgirl09@gmail.com,10.30,USD
rellboynfl@yahoo.com,13.38,USD
alexmonel1@live.com,10.36,USD
corkysturm@yahoo.com,10.08,USD
a.chamblee@gmail.com,10.33,USD
lenouni@gmail.com,10.39,USD
simmons.m.1987@gmail.com,10.53,USD
cassandrafoster6060@gmail.com,10.02,USD
telemanar@gmail.com,10.15,USD
likejames913@gmail.com,10.35,USD
lshoshani@yahoo.com,13.31,USD
tresherry@gmail.com,10.35,USD
lindseymcgill2@gmail.com,21.03,USD
pajsglaze@gmail.com,10.35,USD
zhana6jackson@gmail.com,273.04,USD
gmobrown@yahoo.com,29.84,USD
owllove87@gmail.com,10.97,USD
workathomewithsara14@gmail.com,10.60,USD
